<?xml version="1.0" encoding="iso-8859-1"?>
<svg xmlns="http://www.w3.org/2000/svg"
	 viewBox="0 0 490 490" fill="#333333" xml:space="preserve">
<g>
	<g>
		<g>
			<path d="M227.8,174.1v53.7h-53.7c-9.5,0-17.2,7.7-17.2,17.2s7.7,17.2,17.2,17.2h53.7v53.7c0,9.5,7.7,17.2,17.2,17.2
				s17.1-7.7,17.1-17.2v-53.7h53.7c9.5,0,17.2-7.7,17.2-17.2s-7.7-17.2-17.2-17.2h-53.7v-53.7c0-9.5-7.7-17.2-17.1-17.2
				S227.8,164.6,227.8,174.1z"/>

		</g>
	</g>
</g>
</svg>
